PS2_Wells
…
library(dplyr)
wells <- read_csv("https://ditraglia.com/data/wells.csv")

Rows: 3020 Columns: 5
── Column specification ────────────────────────────────────────────────────────
Delimiter: ","
dbl (5): switch, arsenic, dist, assoc, educ

ℹ Use `spec()` to retrieve the full column specification for this data.
ℹ Specify the column types or set `show_col_types = FALSE` to quiet this message.

wells

# A tibble: 3,020 × 5
   switch arsenic  dist assoc  educ
    <dbl>   <dbl> <dbl> <dbl> <dbl>
 1      1    2.36  16.8     0     0
 2      1    0.71  47.3     0     0
 3      0    2.07  21.0     0    10
 4      1    1.15  21.5     0    12
 5      1    1.1   40.9     1    14
 6      1    3.9   69.5     1     9
 7      1    2.97  80.7     1     4
 8      1    3.24  55.1     0    10
 9      1    3.28  52.6     1     0
10      1    2.52  75.1     1     0
# ℹ 3,010 more rows
…
max_effect <- coef(fit1)["dist100"]/4
max_effect

   dist100 
-0.1554705 

Exercise 3

a.

wells <- wells |> 
  mutate(p1 = predict(fit1, type = "response"))
wells

# A tibble: 3,020 × 9
   switch arsenic  dist assoc  educ larsenic dist100  zeduc    p1
    <dbl>   <dbl> <dbl> <dbl> <dbl>    <dbl>   <dbl>  <dbl> <dbl>
 1      1    2.36  16.8     0     0   0.859    0.168 -1.20  0.623
 2      1    0.71  47.3     0     0  -0.342    0.473 -1.20  0.577
 3      0    2.07  21.0     0    10   0.728    0.210  1.29  0.617
 4      1    1.15  21.5     0    12   0.140    0.215  1.79  0.616
 5      1    1.1   40.9     1    14   0.0953   0.409  2.28  0.587
 6      1    3.9   69.5     1     9   1.36     0.695  1.04  0.543
 7      1    2.97  80.7     1     4   1.09     0.807 -0.206 0.526
 8      1    3.24  55.1     0    10   1.18     0.551  1.29  0.565
 9      1    3.28  52.6     1     0   1.19     0.526 -1.20  0.569
10      1    2.52  75.1     1     0   0.924    0.751 -1.20  0.535
# ℹ 3,010 more rows

b.

wells <- wells |> 
  mutate(pred1 = ifelse(p1 > 1/2, 1, 0))
wells

# A tibble: 3,020 × 10
   switch arsenic  dist assoc  educ larsenic dist100  zeduc    p1 pred1
    <dbl>   <dbl> <dbl> <dbl> <dbl>    <dbl>   <dbl>  <dbl> <dbl> <dbl>
 1      1    2.36  16.8     0     0   0.859    0.168 -1.20  0.623     1
 2      1    0.71  47.3     0     0  -0.342    0.473 -1.20  0.577     1
 3      0    2.07  21.0     0    10   0.728    0.210  1.29  0.617     1
 4      1    1.15  21.5     0    12   0.140    0.215  1.79  0.616     1
 5      1    1.1   40.9     1    14   0.0953   0.409  2.28  0.587     1
 6      1    3.9   69.5     1     9   1.36     0.695  1.04  0.543     1
 7      1    2.97  80.7     1     4   1.09     0.807 -0.206 0.526     1
 8      1    3.24  55.1     0    10   1.18     0.551  1.29  0.565     1
 9      1    3.28  52.6     1     0   1.19     0.526 -1.20  0.569     1
10      1    2.52  75.1     1     0   0.924    0.751 -1.20  0.535     1
# ℹ 3,010 more rows
…
