PS2_NSW
…
library(haven)
library(dplyr)
library(broom)

experimental <- read_dta("https://users.nber.org/~rdehejia/data/nsw_dw.dta")

b.

experimental <- experimental |> 
  rename(earnings74 = re74,
         earnings75 = re75,
         earnings78 = re78)
experimental

# A tibble: 445 × 11
   data_id      treat   age education black hispanic married nodegree earnings74
   <chr>        <dbl> <dbl>     <dbl> <dbl>    <dbl>   <dbl>    <dbl>      <dbl>
 1 Dehejia-Wah…     1    37        11     1        0       1        1          0
 2 Dehejia-Wah…     1    22         9     0        1       0        1          0
 3 Dehejia-Wah…     1    30        12     1        0       0        0          0
 4 Dehejia-Wah…     1    27        11     1        0       0        1          0
 5 Dehejia-Wah…     1    33         8     1        0       0        1          0
 6 Dehejia-Wah…     1    22         9     1        0       0        1          0
 7 Dehejia-Wah…     1    23        12     1        0       0        0          0
 8 Dehejia-Wah…     1    32        11     1        0       0        1          0
 9 Dehejia-Wah…     1    22        16     1        0       0        0          0
10 Dehejia-Wah…     1    33        12     0        0       1        0          0
# ℹ 435 more rows
# ℹ 2 more variables: earnings75 <dbl>, earnings78 <dbl>

c.

experimental <- experimental |> 
  mutate(race = case_when(black == 1 ~ "black",
                          hispanic == 1 ~ "hispanic",
                          TRUE ~ "white")
         ) |> 
  select(-black, -hispanic)
experimental

# A tibble: 445 × 10
   data_id          treat   age education married nodegree earnings74 earnings75
   <chr>            <dbl> <dbl>     <dbl>   <dbl>    <dbl>      <dbl>      <dbl>
 1 Dehejia-Wahba S…     1    37        11       1        1          0          0
 2 Dehejia-Wahba S…     1    22         9       0        1          0          0
 3 Dehejia-Wahba S…     1    30        12       0        0          0          0
 4 Dehejia-Wahba S…     1    27        11       0        1          0          0
 5 Dehejia-Wahba S…     1    33         8       0        1          0          0
 6 Dehejia-Wahba S…     1    22         9       0        1          0          0
 7 Dehejia-Wahba S…     1    23        12       0        0          0          0
 8 Dehejia-Wahba S…     1    32        11       0        1          0          0
 9 Dehejia-Wahba S…     1    22        16       0        0          0          0
10 Dehejia-Wahba S…     1    33        12       1        0          0          0
# ℹ 435 more rows
# ℹ 2 more variables: earnings78 <dbl>, race <chr>

d.

experimental <- experimental |> 
  mutate(treat = ifelse(treat == 1, "treated", "non_treated"),
         degree = ifelse(nodegree == 1, "no_high_school", "high_school"),
         marriage = ifelse(married, "married", "unmarried")
         ) |> 
  select(-nodegree, -married)
experimental

# A tibble: 445 × 10
   data_id   treat   age education earnings74 earnings75 earnings78 race  degree
   <chr>     <chr> <dbl>     <dbl>      <dbl>      <dbl>      <dbl> <chr> <chr> 
 1 Dehejia-… trea…    37        11          0          0      9930. black no_hi…
 2 Dehejia-… trea…    22         9          0          0      3596. hisp… no_hi…
 3 Dehejia-… trea…    30        12          0          0     24909. black high_…
 4 Dehejia-… trea…    27        11          0          0      7506. black no_hi…
 5 Dehejia-… trea…    33         8          0          0       290. black no_hi…
 6 Dehejia-… trea…    22         9          0          0      4056. black no_hi…
 7 Dehejia-… trea…    23        12          0          0         0  black high_…
 8 Dehejia-… trea…    32        11          0          0      8472. black no_hi…
 9 Dehejia-… trea…    22        16          0          0      2164. black high_…
10 Dehejia-… trea…    33        12          0          0     12418. white high_…
# ℹ 435 more rows
# ℹ 1 more variable: marriage <chr>

e.

experimental <- experimental |> 
  mutate(employment74 = ifelse(earnings74==0, "unemployed", "employed"),
         employement75 = ifelse(earnings75==0, "unemployed", "employed"))

experimental

# A tibble: 445 × 12
   data_id   treat   age education earnings74 earnings75 earnings78 race  degree
   <chr>     <chr> <dbl>     <dbl>      <dbl>      <dbl>      <dbl> <chr> <chr> 
 1 Dehejia-… trea…    37        11          0          0      9930. black no_hi…
 2 Dehejia-… trea…    22         9          0          0      3596. hisp… no_hi…
 3 Dehejia-… trea…    30        12          0          0     24909. black high_…
 4 Dehejia-… trea…    27        11          0          0      7506. black no_hi…
 5 Dehejia-… trea…    33         8          0          0       290. black no_hi…
 6 Dehejia-… trea…    22         9          0          0      4056. black no_hi…
 7 Dehejia-… trea…    23        12          0          0         0  black high_…
 8 Dehejia-… trea…    32        11          0          0      8472. black no_hi…
 9 Dehejia-… trea…    22        16          0          0      2164. black high_…
10 Dehejia-… trea…    33        12          0          0     12418. white high_…
# ℹ 435 more rows
# ℹ 3 more variables: marriage <chr>, employment74 <chr>, employement75 <chr>

f.

experimental <- experimental |> 
  select(-data_id)
experimental

# A tibble: 445 × 11
   treat    age education earnings74 earnings75 earnings78 race  degree marriage
   <chr>  <dbl>     <dbl>      <dbl>      <dbl>      <dbl> <chr> <chr>  <chr>   
 1 treat…    37        11          0          0      9930. black no_hi… married 
 2 treat…    22         9          0          0      3596. hisp… no_hi… unmarri…
 3 treat…    30        12          0          0     24909. black high_… unmarri…
 4 treat…    27        11          0          0      7506. black no_hi… unmarri…
 5 treat…    33         8          0          0       290. black no_hi… unmarri…
 6 treat…    22         9          0          0      4056. black no_hi… unmarri…
 7 treat…    23        12          0          0         0  black high_… unmarri…
 8 treat…    32        11          0          0      8472. black no_hi… unmarri…
 9 treat…    22        16          0          0      2164. black high_… unmarri…
10 treat…    33        12          0          0     12418. white high_… married 
# ℹ 435 more rows
# ℹ 2 more variables: employment74 <chr>, employement75 <chr>
…
 ci_lower ci_higher 
 479.1892  479.1892 

Exercise 3

a.

cps_controls <- read_dta("https://users.nber.org/~rdehejia/data/cps_controls.dta")
cps_controls

# A tibble: 15,992 × 11
   data_id treat   age education black hispanic married nodegree   re74   re75
   <chr>   <dbl> <dbl>     <dbl> <dbl>    <dbl>   <dbl>    <dbl>  <dbl>  <dbl>
 1 CPS1        0    45        11     0        0       1        1 21517. 25244.
 2 CPS1        0    21        14     0        0       0        0  3176.  5853.
 3 CPS1        0    38        12     0        0       1        0 23039. 25131.
 4 CPS1        0    48         6     0        0       1        1 24994. 25244.
 5 CPS1        0    18         8     0        0       1        1  1669. 10728.
 6 CPS1        0    22        11     0        0       1        1 16366. 18449.
 7 CPS1        0    48        10     0        0       1        1 16805. 16355.
 8 CPS1        0    18        11     0        0       0        1  1144.  3620.
 9 CPS1        0    48         9     0        0       1        1 25862. 25244.
10 CPS1        0    45        12     0        0       1        0 25862.     0 
# ℹ 15,982 more rows
# ℹ 1 more variable: re78 <dbl>

b.

cps_controls <- cleanup(cps_controls)
cps_controls

# A tibble: 15,992 × 11
   treat    age education earnings74 earnings75 earnings78 race  degree marriage
   <chr>  <dbl>     <dbl>      <dbl>      <dbl>      <dbl> <chr> <chr>  <chr>   
 1 non_t…    45        11     21517.     25244.     25565. white no_hi… married 
 2 non_t…    21        14      3176.      5853.     13496. white high_… unmarri…
 3 non_t…    38        12     23039.     25131.     25565. white high_… married 
 4 non_t…    48         6     24994.     25244.     25565. white no_hi… married 
 5 non_t…    18         8      1669.     10728.      9861. white no_hi… married 
 6 non_t…    22        11     16366.     18449.     25565. white no_hi… married 
 7 non_t…    48        10     16805.     16355.     18059. white no_hi… married 
 8 non_t…    18        11      1144.      3620.     15739. white no_hi… unmarri…
 9 non_t…    48         9     25862.     25244.     25565. white no_hi… married 
10 non_t…    45        12     25862.         0       3925. white high_… married 
# ℹ 15,982 more rows
# ℹ 2 more variables: employment74 <chr>, employement75 <chr>
…
