PS1_Lakisha
…
They create a bank of fictitious resumes to help-wanted ads in Boston and Chicago newspapers and measure callback for interview for each sent resume. The resumes are randomly assigned African-American or White-sounding names. They also produce high-quality and low-quality resumes to study how responsive callbacks are to credentials for African-American names compared with White names.The resumes are also sent to a large spetrum of job quality and industries.

c.

They find large racial differences in callback rates. White names receive 50 percent more callbacks for interviews. Callbacks are also more responsive to resume quality for White names than for African-American ones. Applicants with African-American names can find it difficult to overcome this difficulty by improving their observable skills and credentials. The racial gap is uniform across occupation, industry, and employer size. Hence, training program might not be enough to alleviate this racial gap and other forces might be needed.

Exercise 2

a.

It has 4870 rows and 65 columns.

bm

# A tibble: 4,870 × 65
   id    ad    education ofjobs yearsexp honors volunteer military empholes
   <chr> <chr>     <dbl>  <dbl>    <dbl>  <dbl>     <dbl>    <dbl>    <dbl>
 1 b     1             4      2        6      0         0        0        1
 2 b     1             3      3        6      0         1        1        0
 3 b     1             4      1        6      0         0        0        0
 4 b     1             3      4        6      0         1        0        1
 5 b     1             3      3       22      0         0        0        0
 6 b     1             4      2        6      1         0        0        0
 7 b     1             4      2        5      0         1        0        0
 8 b     1             3      4       21      0         1        0        1
 9 b     1             4      3        3      0         0        0        0
10 b     1             4      2        6      0         1        0        0
# ℹ 4,860 more rows
# ℹ 56 more variables: occupspecific <dbl>, occupbroad <dbl>,
#   workinschool <dbl>, email <dbl>, computerskills <dbl>, specialskills <dbl>,
#   firstname <chr>, sex <chr>, race <chr>, h <dbl>, l <dbl>, call <dbl>,
#   city <chr>, kind <chr>, adid <dbl>, fracblack <dbl>, fracwhite <dbl>,
#   lmedhhinc <dbl>, fracdropout <dbl>, fraccolp <dbl>, linc <dbl>, col <dbl>,
#   expminreq <chr>, schoolreq <chr>, eoe <dbl>, parent_sales <dbl>, …

b.

“sex” column contains the sex of the individual indicated by the resume. “f” stands for female and “m” stands for male. “race” column contains the race of the individual implied by the resume. “w” stands for white and “b” stands for black. “firstname” column contains the fictitious name included in the resume.

bm[c("sex", "race", "firstname")]

# A tibble: 4,870 × 3
   sex   race  firstname
   <chr> <chr> <chr>    
 1 f     w     Allison  
 2 f     w     Kristen  
 3 f     b     Lakisha  
 4 f     b     Latonya  
 5 f     w     Carrie   
 6 m     w     Jay      
 7 f     w     Jill     
 8 f     b     Kenya    
 9 f     b     Latonya  
10 m     b     Tyrone   
# ℹ 4,860 more rows

c.

# use mutate to create the column. use ifelse to generate TRUE/FALSE values depending on the condition (female/black)
bm <- bm |>
  mutate(female = ifelse(sex == "f", TRUE, FALSE),
         black = ifelse(race == "b", TRUE, FALSE))
bm

# A tibble: 4,870 × 67
   id    ad    education ofjobs yearsexp honors volunteer military empholes
   <chr> <chr>     <dbl>  <dbl>    <dbl>  <dbl>     <dbl>    <dbl>    <dbl>
 1 b     1             4      2        6      0         0        0        1
 2 b     1             3      3        6      0         1        1        0
 3 b     1             4      1        6      0         0        0        0
 4 b     1             3      4        6      0         1        0        1
 5 b     1             3      3       22      0         0        0        0
 6 b     1             4      2        6      1         0        0        0
 7 b     1             4      2        5      0         1        0        0
 8 b     1             3      4       21      0         1        0        1
 9 b     1             4      3        3      0         0        0        0
10 b     1             4      2        6      0         1        0        0
# ℹ 4,860 more rows
# ℹ 58 more variables: occupspecific <dbl>, occupbroad <dbl>,
#   workinschool <dbl>, email <dbl>, computerskills <dbl>, specialskills <dbl>,
#   firstname <chr>, sex <chr>, race <chr>, h <dbl>, l <dbl>, call <dbl>,
#   city <chr>, kind <chr>, adid <dbl>, fracblack <dbl>, fracwhite <dbl>,
#   lmedhhinc <dbl>, fracdropout <dbl>, fraccolp <dbl>, linc <dbl>, col <dbl>,
#   expminreq <chr>, schoolreq <chr>, eoe <dbl>, parent_sales <dbl>, …
…
